{
   "$schema": "http://json-schema.org/schema#",
   "id": "https://gitlab.com/synchronicity-iot/synchronicity-data-models/blob/master/Transportation/RestrictedTrafficArea/RestrictionException/schema.json",
   "title": "SynchroniCity - Transportation / RestrictedTrafficArea / RestrictionException",
   "description": "A “Restriction Exception” represents a particular case that specialise restriction reported in a “Restricted Traffic Areas”; for instance it could describe particular permissions applied to specific kind vehicles",
   "type": "object",
   "required": [
      "allowedVehicleType",
      "refRestrictedTrafficArea"
   ],
   "allOf": [
      {
         "$ref": "https://fiware.github.io/dataModels/common-schema.json#/definitions/GSMA-Commons"
      },
      {
         "$ref": "https://fiware.github.io/dataModels/common-schema.json#/definitions/Location-Commons"
      },
      {
         "properties": {
            "allowedVehicleType": {
               "type": "array",
               "items": {
                  "type": "string"
               },
               "minItems": 1,
               "uniqueItems": true
            },
            "exceptionValidityHours": {
               "type": "string"
            },
            "refVehicleModel": {
               "$ref": "https://fiware.github.io/dataModels/common-schema.json#/definitions/EntityIdentifierType"
            },
            "refRestrictedTrafficArea": {
               "$ref": "https://fiware.github.io/dataModels/common-schema.json#/definitions/EntityIdentifierType"
            }
         }
      }
   ]
}